%YAML 1.1
%TAG !u! tag:unity3d.com,2011:
--- !u!74 &7400000
AnimationClip:
  m_ObjectHideFlags: 0
  m_CorrespondingSourceObject: {fileID: 0}
  m_PrefabInternal: {fileID: 0}
  m_Name: Demon_Attack
  serializedVersion: 6
  m_Legacy: 0
  m_Compressed: 0
  m_UseHighQualityCurve: 1
  m_RotationCurves: []
  m_CompressedRotationCurves: []
  m_EulerCurves: []
  m_PositionCurves: []
  m_ScaleCurves: []
  m_FloatCurves:
  - curve:
      serializedVersion: 2
      m_Curve:
      - serializedVersion: 3
        time: 0
        value: 0
        inSlope: Infinity
        outSlope: Infinity
        tangentMode: 103
        weightedMode: 0
        inWeight: 0
        outWeight: 0
      - serializedVersion: 3
        time: 0.7
        value: 1
        inSlope: Infinity
        outSlope: Infinity
        tangentMode: 103
        weightedMode: 0
        inWeight: 0
        outWeight: 0
      - serializedVersion: 3
        time: 0.9166667
        value: 0
        inSlope: Infinity
        outSlope: Infinity
        tangentMode: 103
        weightedMode: 0
        inWeight: 0
        outWeight: 0
      m_PreInfinity: 2
      m_PostInfinity: 2
      m_RotationOrder: 4
    attribute: m_Enabled
    path: Enemy_DemonProjectile
    classID: 114
    script: {fileID: 11500000, guid: f2437fc1580297f4a9fc8b7483b3c99e, type: 3}
  m_PPtrCurves:
  - curve:
    - time: 0
      value: {fileID: 21300000, guid: c116d8dc15acd1b47bd13240775c3e3f, type: 3}
    - time: 0.1
      value: {fileID: 21300002, guid: c116d8dc15acd1b47bd13240775c3e3f, type: 3}
    - time: 0.2
      value: {fileID: 21300004, guid: c116d8dc15acd1b47bd13240775c3e3f, type: 3}
    - time: 0.3
      value: {fileID: 21300006, guid: c116d8dc15acd1b47bd13240775c3e3f, type: 3}
    - time: 0.4
      value: {fileID: 21300008, guid: c116d8dc15acd1b47bd13240775c3e3f, type: 3}
    - time: 0.5
      value: {fileID: 21300010, guid: c116d8dc15acd1b47bd13240775c3e3f, type: 3}
    - time: 0.6
      value: {fileID: 21300012, guid: c116d8dc15acd1b47bd13240775c3e3f, type: 3}
    - time: 0.7
      value: {fileID: 21300014, guid: c116d8dc15acd1b47bd13240775c3e3f, type: 3}
    - time: 0.8
      value: {fileID: 21300016, guid: c116d8dc15acd1b47bd13240775c3e3f, type: 3}
    - time: 0.9
      value: {fileID: 21300018, guid: c116d8dc15acd1b47bd13240775c3e3f, type: 3}
    - time: 1
      value: {fileID: 21300020, guid: c116d8dc15acd1b47bd13240775c3e3f, type: 3}
    attribute: m_Sprite
    path: 
    classID: 212
    script: {fileID: 0}
  m_SampleRate: 60
  m_WrapMode: 0
  m_Bounds:
    m_Center: {x: 0, y: 0, z: 0}
    m_Extent: {x: 0, y: 0, z: 0}
  m_ClipBindingConstant:
    genericBindings:
    - serializedVersion: 2
      path: 3313722142
      attribute: 3305885265
      script: {fileID: 11500000, guid: f2437fc1580297f4a9fc8b7483b3c99e, type: 3}
      typeID: 114
      customType: 24
      isPPtrCurve: 0
    - serializedVersion: 2
      path: 0
      attribute: 0
      script: {fileID: 0}
      typeID: 212
      customType: 23
      isPPtrCurve: 1
    pptrCurveMapping:
    - {fileID: 21300000, guid: c116d8dc15acd1b47bd13240775c3e3f, type: 3}
    - {fileID: 21300002, guid: c116d8dc15acd1b47bd13240775c3e3f, type: 3}
    - {fileID: 21300004, guid: c116d8dc15acd1b47bd13240775c3e3f, type: 3}
    - {fileID: 21300006, guid: c116d8dc15acd1b47bd13240775c3e3f, type: 3}
    - {fileID: 21300008, guid: c116d8dc15acd1b47bd13240775c3e3f, type: 3}
    - {fileID: 21300010, guid: c116d8dc15acd1b47bd13240775c3e3f, type: 3}
    - {fileID: 21300012, guid: c116d8dc15acd1b47bd13240775c3e3f, type: 3}
    - {fileID: 21300014, guid: c116d8dc15acd1b47bd13240775c3e3f, type: 3}
    - {fileID: 21300016, guid: c116d8dc15acd1b47bd13240775c3e3f, type: 3}
    - {fileID: 21300018, guid: c116d8dc15acd1b47bd13240775c3e3f, type: 3}
    - {fileID: 21300020, guid: c116d8dc15acd1b47bd13240775c3e3f, type: 3}
  m_AnimationClipSettings:
    serializedVersion: 2
    m_AdditiveReferencePoseClip: {fileID: 0}
    m_AdditiveReferencePoseTime: 0
    m_StartTime: 0
    m_StopTime: 1.0166667
    m_OrientationOffsetY: 0
    m_Level: 0
    m_CycleOffset: 0
    m_HasAdditiveReferencePose: 0
    m_LoopTime: 0
    m_LoopBlend: 0
    m_LoopBlendOrientation: 0
    m_LoopBlendPositionY: 0
    m_LoopBlendPositionXZ: 0
    m_KeepOriginalOrientation: 0
    m_KeepOriginalPositionY: 1
    m_KeepOriginalPositionXZ: 0
    m_HeightFromFeet: 0
    m_Mirror: 0
  m_EditorCurves:
  - curve:
      serializedVersion: 2
      m_Curve:
      - serializedVersion: 3
        time: 0
        value: 0
        inSlope: Infinity
        outSlope: Infinity
        tangentMode: 103
        weightedMode: 0
        inWeight: 0
        outWeight: 0
      - serializedVersion: 3
        time: 0.7
        value: 1
        inSlope: Infinity
        outSlope: Infinity
        tangentMode: 103
        weightedMode: 0
        inWeight: 0
        outWeight: 0
      - serializedVersion: 3
        time: 0.9166667
        value: 0
        inSlope: Infinity
        outSlope: Infinity
        tangentMode: 103
        weightedMode: 0
        inWeight: 0
        outWeight: 0
      m_PreInfinity: 2
      m_PostInfinity: 2
      m_RotationOrder: 4
    attribute: m_Enabled
    path: Enemy_DemonProjectile
    classID: 114
    script: {fileID: 11500000, guid: f2437fc1580297f4a9fc8b7483b3c99e, type: 3}
  m_EulerEditorCurves: []
  m_HasGenericRootTransform: 0
  m_HasMotionFloatCurves: 0
  m_GenerateMotionCurves: 0
  m_Events: []
