# MagicaVoxel @ Ephtracy

# group
g Gold_00

# material
mtllib Gold_00.mtl
usemtl palette

# normals
vn -1 0 0
vn 1 0 0
vn 0 0 1
vn 0 0 -1
vn 0 -1 0
vn 0 1 0

# texcoords
vt 0.0175781 0.5
vt 0.966797 0.5

# verts
v -5 0 5
v -5 0 -5
v -5 1 5
v -5 1 2
v -5 1 -1
v -5 1 -4
v -5 1 -5
v -5 2 2
v -5 2 -1
v -5 2 -4
v -5 2 -5
v -5 3 -4
v -5 3 -5
v -4 1 3
v -4 1 2
v -4 2 2
v -4 4 5
v -4 4 4
v -4 4 3
v -4 4 2
v -4 5 5
v -4 5 4
v -4 6 4
v -4 6 3
v -4 6 2
v -4 7 2
v -4 7 1
v -4 7 -4
v -4 8 3
v -4 8 2
v -4 8 1
v -4 8 -0
v -4 8 -1
v -4 8 -2
v -4 9 -0
v -4 9 -1
v -4 9 -2
v -4 9 -4
v -3 1 5
v -3 1 3
v -3 2 5
v -3 2 4
v -3 2 2
v -3 2 -0
v -3 2 -2
v -3 2 -4
v -3 4 5
v -3 4 4
v -3 4 3
v -3 4 2
v -3 5 -0
v -3 5 -2
v -3 6 2
v -3 6 1
v -3 6 -2
v -3 6 -4
v -3 7 2
v -3 7 1
v -3 7 -2
v -3 7 -4
v -3 8 3
v -3 8 2
v -3 8 1
v -3 8 -0
v -3 9 3
v -3 9 -0
v -3 9 -1
v -3 9 -2
v -3 9 -3
v -3 10 -1
v -3 10 -2
v -3 10 -3
v 0 2 -4
v 0 2 -5
v 0 3 -4
v 0 6 4
v 0 6 3
v 0 6 -4
v 0 6 -5
v 0 8 4
v 0 8 3
v 0 9 4
v 0 9 3
v 2 1 5
v 2 1 4
v 2 4 5
v 2 4 4
v 2 9 4
v 2 9 1
v 2 10 4
v 2 10 1
v -4 2 -4
v -4 2 -5
v -4 3 -4
v -4 3 -5
v -2 1 5
v -2 1 4
v -2 2 5
v -2 2 4
v -2 4 5
v -2 4 4
v -1 4 5
v -1 4 4
v -1 5 5
v -1 5 4
v 2 6 -0
v 2 6 -2
v 2 6 -3
v 2 6 -4
v 2 9 -0
v 2 9 -1
v 2 9 -3
v 2 9 -4
v 2 10 -1
v 2 10 -3
v 3 4 4
v 3 4 2
v 3 4 1
v 3 4 -0
v 3 5 4
v 3 5 -0
v 3 6 4
v 3 6 1
v 3 6 -0
v 3 9 2
v 3 9 1
v 3 9 -0
v 3 10 2
v 3 10 1
v 4 2 5
v 4 2 2
v 4 2 1
v 4 2 -4
v 4 3 -4
v 4 3 -5
v 4 4 5
v 4 4 2
v 4 4 1
v 4 4 -0
v 4 4 -1
v 4 4 -2
v 4 4 -3
v 4 5 -1
v 4 5 -2
v 4 6 4
v 4 6 1
v 4 6 -0
v 4 6 -3
v 4 6 -4
v 4 6 -5
v 4 9 4
v 4 9 2
v 4 9 1
v 4 10 4
v 4 10 2
v 5 0 5
v 5 0 -5
v 5 1 5
v 5 1 1
v 5 1 -4
v 5 1 -5
v 5 2 5
v 5 2 1
v 5 2 -4
v 5 3 -4
v 5 3 -5
v -5 0 5
v -5 1 5
v -4 4 5
v -4 5 5
v -3 1 5
v -3 2 5
v -3 4 5
v -2 1 5
v -2 2 5
v -2 4 5
v -2 5 5
v -1 4 5
v -1 5 5
v 2 1 5
v 2 4 5
v 3 1 5
v 3 4 5
v 4 1 5
v 4 2 5
v 4 4 5
v 5 0 5
v 5 1 5
v 5 2 5
v -4 5 4
v -4 6 4
v -3 5 4
v -3 6 4
v -2 1 4
v -2 2 4
v -2 4 4
v -2 5 4
v -1 4 4
v -1 5 4
v 0 6 4
v 0 8 4
v 0 9 4
v 1 8 4
v 1 9 4
v 2 1 4
v 2 4 4
v 2 5 4
v 2 9 4
v 2 10 4
v 3 4 4
v 3 5 4
v 3 6 4
v 4 6 4
v 4 9 4
v 4 10 4
v -4 1 3
v -4 4 3
v -4 6 3
v -4 8 3
v -3 1 3
v -3 4 3
v -3 6 3
v -3 7 3
v -3 8 3
v -3 9 3
v -1 6 3
v -1 7 3
v 0 6 3
v 0 8 3
v 0 9 3
v -5 1 2
v -5 2 2
v -4 1 2
v -4 2 2
v -4 8 -0
v -4 9 -0
v -3 8 -0
v -3 9 -0
v 3 4 -0
v 3 5 -0
v 3 6 -0
v 4 4 -0
v 4 6 -0
v -3 9 -1
v -3 10 -1
v -1 9 -1
v -1 10 -1
v 1 9 -1
v 1 10 -1
v 2 9 -1
v 2 10 -1
v -5 2 -4
v -5 3 -4
v -4 2 -4
v -4 3 -4
v 4 2 -4
v 4 3 -4
v 5 2 -4
v 5 3 -4
v -4 2 2
v -4 4 2
v -4 6 2
v -4 7 2
v -3 2 2
v -3 4 2
v -3 6 2
v -3 7 2
v 3 9 2
v 3 10 2
v 4 9 2
v 4 10 2
v 2 9 1
v 2 10 1
v 3 6 1
v 3 9 1
v 3 10 1
v 4 6 1
v 4 9 1
v 2 6 -0
v 2 9 -0
v 3 6 -0
v 3 9 -0
v -3 9 -3
v -3 10 -3
v -1 9 -3
v 1 9 -3
v 1 10 -3
v 2 9 -3
v 2 10 -3
v -4 7 -4
v -4 9 -4
v -3 2 -4
v -3 6 -4
v -3 7 -4
v -3 9 -4
v -2 3 -4
v -2 6 -4
v -1 6 -4
v -1 9 -4
v 0 2 -4
v 0 3 -4
v 0 6 -4
v 1 6 -4
v 1 9 -4
v 2 6 -4
v 2 9 -4
v -5 0 -5
v -5 1 -5
v -5 2 -5
v -5 3 -5
v -4 2 -5
v -4 3 -5
v 0 2 -5
v 0 6 -5
v 1 2 -5
v 1 6 -5
v 3 2 -5
v 3 6 -5
v 4 3 -5
v 4 6 -5
v 5 0 -5
v 5 1 -5
v 5 3 -5
v -5 0 5
v 5 0 5
v -5 0 -5
v 5 0 -5
v -4 4 5
v -3 4 5
v -2 4 5
v -1 4 5
v -4 4 4
v -3 4 4
v -2 4 4
v -1 4 4
v -4 4 3
v -3 4 3
v 3 6 4
v 4 6 4
v 3 6 1
v 4 6 1
v -4 7 2
v -3 7 2
v -4 7 1
v -3 7 1
v -3 7 -2
v -4 7 -4
v -3 7 -4
v -5 1 5
v -3 1 5
v -2 1 5
v 2 1 5
v -2 1 4
v 2 1 4
v -4 1 3
v -3 1 3
v -5 1 2
v -4 1 2
v 4 2 5
v 5 2 5
v -5 2 2
v -4 2 2
v -3 2 2
v 4 2 2
v 4 2 1
v 5 2 1
v -3 2 -0
v -5 2 -1
v -4 2 -1
v -3 2 -2
v -5 2 -4
v -4 2 -4
v -3 2 -4
v 0 2 -4
v 4 2 -4
v 5 2 -4
v -4 2 -5
v 0 2 -5
v -5 3 -4
v -4 3 -4
v 4 3 -4
v 5 3 -4
v -5 3 -5
v -4 3 -5
v 4 3 -5
v 5 3 -5
v 2 4 5
v 3 4 5
v 4 4 5
v 2 4 4
v 3 4 4
v 3 4 2
v 4 4 2
v 3 4 1
v 4 4 1
v 3 4 -0
v 4 4 -0
v -4 5 5
v -2 5 5
v -1 5 5
v -4 5 4
v -3 5 4
v -2 5 4
v -1 5 4
v -4 6 4
v -3 6 4
v 0 6 4
v -4 6 3
v -3 6 3
v -1 6 3
v 0 6 3
v 2 6 -0
v 3 6 -0
v 4 6 -0
v 2 6 -2
v 3 6 -2
v 2 6 -3
v 4 6 -3
v 0 6 -4
v 1 6 -4
v 2 6 -4
v 3 6 -4
v 4 6 -4
v 0 6 -5
v 1 6 -5
v 3 6 -5
v 4 6 -5
v -4 8 3
v -3 8 3
v -4 8 2
v -3 8 2
v -4 8 1
v -3 8 1
v -4 8 -0
v -3 8 -0
v 0 9 4
v 1 9 4
v 2 9 4
v -3 9 3
v 0 9 3
v 3 9 2
v 4 9 2
v -1 9 1
v 1 9 1
v 2 9 1
v 3 9 1
v 4 9 1
v -4 9 -0
v -3 9 -0
v -1 9 -0
v 2 9 -0
v 3 9 -0
v -4 9 -1
v -3 9 -1
v -1 9 -1
v 1 9 -1
v 2 9 -1
v -4 9 -2
v -3 9 -2
v -3 9 -3
v -1 9 -3
v 1 9 -3
v 2 9 -3
v -4 9 -4
v -3 9 -4
v -1 9 -4
v 1 9 -4
v 2 9 -4
v 2 10 4
v 4 10 4
v 3 10 2
v 4 10 2
v 2 10 1
v 3 10 1
v -3 10 -1
v -1 10 -1
v 1 10 -1
v 2 10 -1
v -3 10 -2
v -1 10 -2
v -3 10 -3
v 1 10 -3
v 2 10 -3

# faces
f 3/2/1 2/2/1 1/2/1
f 4/2/1 2/2/1 3/2/1
f 5/2/1 2/2/1 4/2/1
f 6/2/1 2/2/1 5/2/1
f 7/2/1 2/2/1 6/2/1
f 8/1/1 5/1/1 4/1/1
f 9/2/1 6/2/1 5/2/1
f 9/1/1 5/1/1 8/1/1
f 10/1/1 7/1/1 6/1/1
f 10/2/1 6/2/1 9/2/1
f 11/1/1 7/1/1 10/1/1
f 12/2/1 11/2/1 10/2/1
f 13/2/1 11/2/1 12/2/1
f 16/1/1 15/1/1 14/1/1
f 19/1/1 16/1/1 14/1/1
f 20/1/1 16/1/1 19/1/1
f 21/1/1 18/1/1 17/1/1
f 22/2/1 19/2/1 18/2/1
f 22/1/1 18/1/1 21/1/1
f 22/2/1 20/2/1 19/2/1
f 23/2/1 20/2/1 22/2/1
f 24/2/1 20/2/1 23/2/1
f 25/2/1 20/2/1 24/2/1
f 26/1/1 25/1/1 24/1/1
f 29/1/1 26/1/1 24/1/1
f 30/2/1 27/2/1 26/2/1
f 30/1/1 26/1/1 29/1/1
f 31/1/1 28/1/1 27/1/1
f 31/2/1 27/2/1 30/2/1
f 32/1/1 28/1/1 31/1/1
f 33/1/1 28/1/1 32/1/1
f 34/1/1 28/1/1 33/1/1
f 35/1/1 33/1/1 32/1/1
f 36/2/1 34/2/1 33/2/1
f 36/1/1 33/1/1 35/1/1
f 37/1/1 28/1/1 34/1/1
f 37/2/1 34/2/1 36/2/1
f 38/1/1 28/1/1 37/1/1
f 41/1/1 40/1/1 39/1/1
f 42/1/1 40/1/1 41/1/1
f 47/2/1 42/2/1 41/2/1
f 48/1/1 40/1/1 42/1/1
f 48/2/1 42/2/1 47/2/1
f 49/1/1 40/1/1 48/1/1
f 50/1/1 44/1/1 43/1/1
f 51/1/1 44/1/1 50/1/1
f 51/2/1 45/2/1 44/2/1
f 52/1/1 46/1/1 45/1/1
f 52/2/1 45/2/1 51/2/1
f 53/1/1 51/1/1 50/1/1
f 53/1/1 52/1/1 51/1/1
f 54/1/1 52/1/1 53/1/1
f 55/1/1 46/1/1 52/1/1
f 55/1/1 52/1/1 54/1/1
f 56/1/1 46/1/1 55/1/1
f 57/2/1 54/2/1 53/2/1
f 58/1/1 55/1/1 54/1/1
f 58/2/1 54/2/1 57/2/1
f 59/2/1 56/2/1 55/2/1
f 59/1/1 55/1/1 58/1/1
f 60/2/1 56/2/1 59/2/1
f 65/2/1 62/2/1 61/2/1
f 65/2/1 64/2/1 63/2/1
f 65/2/1 63/2/1 62/2/1
f 66/2/1 64/2/1 65/2/1
f 70/2/1 68/2/1 67/2/1
f 71/1/1 69/1/1 68/1/1
f 71/2/1 68/2/1 70/2/1
f 72/1/1 69/1/1 71/1/1
f 75/1/1 74/1/1 73/1/1
f 78/1/1 74/1/1 75/1/1
f 79/1/1 74/1/1 78/1/1
f 80/1/1 77/1/1 76/1/1
f 81/1/1 77/1/1 80/1/1
f 82/2/1 81/2/1 80/2/1
f 83/2/1 81/2/1 82/2/1
f 86/1/1 85/1/1 84/1/1
f 87/1/1 85/1/1 86/1/1
f 90/1/1 89/1/1 88/1/1
f 91/1/1 89/1/1 90/1/1
f 92/2/2 93/2/2 94/2/2
f 94/2/2 93/2/2 95/2/2
f 96/1/2 97/1/2 98/1/2
f 98/1/2 97/1/2 99/1/2
f 98/2/2 99/2/2 100/2/2
f 100/2/2 99/2/2 101/2/2
f 102/2/2 103/2/2 104/2/2
f 104/2/2 103/2/2 105/2/2
f 106/1/2 107/1/2 110/1/2
f 107/1/2 108/1/2 110/1/2
f 110/1/2 108/1/2 111/1/2
f 108/2/2 109/2/2 112/2/2
f 111/1/2 108/1/2 112/1/2
f 112/2/2 109/2/2 113/2/2
f 111/2/2 112/2/2 114/2/2
f 114/2/2 112/2/2 115/2/2
f 116/1/2 117/1/2 120/1/2
f 118/1/2 119/1/2 120/1/2
f 117/1/2 118/1/2 120/1/2
f 120/1/2 119/1/2 121/1/2
f 120/2/2 121/2/2 122/2/2
f 122/2/2 121/2/2 123/2/2
f 123/2/2 121/2/2 124/2/2
f 123/2/2 124/2/2 126/2/2
f 126/2/2 124/2/2 127/2/2
f 125/1/2 126/1/2 128/1/2
f 128/1/2 126/1/2 129/1/2
f 132/2/2 133/2/2 134/2/2
f 130/2/2 131/2/2 136/2/2
f 131/1/2 132/1/2 137/1/2
f 136/2/2 131/2/2 137/2/2
f 132/2/2 134/2/2 138/2/2
f 137/1/2 132/1/2 138/1/2
f 138/2/2 134/2/2 139/2/2
f 139/2/2 134/2/2 140/2/2
f 140/2/2 134/2/2 141/2/2
f 141/2/2 134/2/2 142/2/2
f 140/2/2 141/2/2 143/2/2
f 139/1/2 140/1/2 143/1/2
f 141/1/2 142/1/2 144/1/2
f 143/2/2 141/2/2 144/2/2
f 139/1/2 143/1/2 147/1/2
f 143/1/2 144/1/2 147/1/2
f 142/2/2 134/2/2 148/2/2
f 147/1/2 144/1/2 148/1/2
f 144/1/2 142/1/2 148/1/2
f 134/1/2 135/1/2 149/1/2
f 148/2/2 134/2/2 149/2/2
f 149/1/2 135/1/2 150/1/2
f 145/2/2 146/2/2 151/2/2
f 151/2/2 146/2/2 152/2/2
f 152/2/2 146/2/2 153/2/2
f 151/1/2 152/1/2 154/1/2
f 154/1/2 152/1/2 155/1/2
f 156/2/2 157/2/2 158/2/2
f 158/2/2 157/2/2 159/2/2
f 159/2/2 157/2/2 160/2/2
f 160/2/2 157/2/2 161/2/2
f 158/1/2 159/1/2 162/1/2
f 159/2/2 160/2/2 163/2/2
f 162/1/2 159/1/2 163/1/2
f 160/1/2 161/1/2 164/1/2
f 163/2/2 160/2/2 164/2/2
f 164/1/2 161/1/2 165/1/2
f 165/1/2 161/1/2 166/1/2
f 171/2/3 168/2/3 167/2/3
f 173/1/3 170/1/3 169/1/3
f 174/1/3 172/1/3 171/1/3
f 174/2/3 171/2/3 167/2/3
f 175/2/3 173/2/3 172/2/3
f 175/1/3 172/1/3 174/1/3
f 176/1/3 170/1/3 173/1/3
f 176/2/3 173/2/3 175/2/3
f 177/1/3 170/1/3 176/1/3
f 178/2/3 177/2/3 176/2/3
f 179/2/3 177/2/3 178/2/3
f 180/2/3 174/2/3 167/2/3
f 182/2/3 180/2/3 167/2/3
f 182/1/3 181/1/3 180/1/3
f 183/1/3 181/1/3 182/1/3
f 184/2/3 182/2/3 167/2/3
f 184/2/3 183/2/3 182/2/3
f 185/2/3 183/2/3 184/2/3
f 186/2/3 183/2/3 185/2/3
f 187/2/3 184/2/3 167/2/3
f 188/1/3 185/1/3 184/1/3
f 188/2/3 184/2/3 187/2/3
f 189/1/3 185/1/3 188/1/3
f 192/2/3 191/2/3 190/2/3
f 193/2/3 191/2/3 192/2/3
f 197/1/3 193/1/3 192/1/3
f 198/2/3 196/2/3 195/2/3
f 198/2/3 195/2/3 194/2/3
f 199/1/3 193/1/3 197/1/3
f 200/1/3 193/1/3 199/1/3
f 203/1/3 201/1/3 200/1/3
f 203/2/3 202/2/3 201/2/3
f 204/2/3 202/2/3 203/2/3
f 205/2/3 198/2/3 194/2/3
f 205/2/3 199/2/3 198/2/3
f 206/2/3 199/2/3 205/2/3
f 207/1/3 200/1/3 199/1/3
f 207/2/3 199/2/3 206/2/3
f 207/1/3 204/1/3 203/1/3
f 207/1/3 203/1/3 200/1/3
f 208/1/3 204/1/3 207/1/3
f 210/1/3 207/1/3 206/1/3
f 211/2/3 208/2/3 207/2/3
f 211/1/3 207/1/3 210/1/3
f 212/2/3 208/2/3 211/2/3
f 213/2/3 208/2/3 212/2/3
f 214/1/3 209/1/3 208/1/3
f 214/2/3 208/2/3 213/2/3
f 215/1/3 209/1/3 214/1/3
f 220/1/3 217/1/3 216/1/3
f 221/1/3 217/1/3 220/1/3
f 222/1/3 219/1/3 218/1/3
f 223/1/3 219/1/3 222/1/3
f 224/1/3 219/1/3 223/1/3
f 226/2/3 223/2/3 222/2/3
f 227/1/3 224/1/3 223/1/3
f 227/2/3 223/2/3 226/2/3
f 228/1/3 227/1/3 226/1/3
f 229/2/3 225/2/3 224/2/3
f 229/1/3 227/1/3 228/1/3
f 229/1/3 224/1/3 227/1/3
f 230/2/3 225/2/3 229/2/3
f 233/1/3 232/1/3 231/1/3
f 234/1/3 232/1/3 233/1/3
f 237/1/3 236/1/3 235/1/3
f 238/1/3 236/1/3 237/1/3
f 242/1/3 240/1/3 239/1/3
f 242/1/3 241/1/3 240/1/3
f 243/1/3 241/1/3 242/1/3
f 246/2/3 245/2/3 244/2/3
f 247/2/3 245/2/3 246/2/3
f 248/1/3 247/1/3 246/1/3
f 249/1/3 247/1/3 248/1/3
f 250/2/3 249/2/3 248/2/3
f 251/2/3 249/2/3 250/2/3
f 254/2/3 253/2/3 252/2/3
f 255/2/3 253/2/3 254/2/3
f 258/1/3 257/1/3 256/1/3
f 259/1/3 257/1/3 258/1/3
f 260/1/4 261/1/4 264/1/4
f 261/2/4 262/2/4 265/2/4
f 264/1/4 261/1/4 265/1/4
f 262/1/4 263/1/4 266/1/4
f 265/2/4 262/2/4 266/2/4
f 266/1/4 263/1/4 267/1/4
f 268/1/4 269/1/4 270/1/4
f 270/1/4 269/1/4 271/1/4
f 272/1/4 273/1/4 275/1/4
f 275/1/4 273/1/4 276/1/4
f 274/2/4 275/2/4 277/2/4
f 277/2/4 275/2/4 278/2/4
f 279/2/4 280/2/4 281/2/4
f 281/2/4 280/2/4 282/2/4
f 283/1/4 284/1/4 285/1/4
f 285/1/4 284/1/4 286/1/4
f 286/1/4 284/1/4 287/1/4
f 286/2/4 287/2/4 288/2/4
f 288/2/4 287/2/4 289/2/4
f 290/1/4 291/1/4 294/1/4
f 294/1/4 291/1/4 295/1/4
f 292/1/4 293/1/4 296/1/4
f 293/2/4 294/2/4 297/2/4
f 296/1/4 293/1/4 297/1/4
f 294/2/4 295/2/4 297/2/4
f 296/2/4 297/2/4 298/2/4
f 297/2/4 295/2/4 298/2/4
f 298/2/4 295/2/4 299/2/4
f 292/1/4 296/1/4 300/1/4
f 296/2/4 298/2/4 301/2/4
f 300/1/4 296/1/4 301/1/4
f 298/1/4 299/1/4 302/1/4
f 301/2/4 298/2/4 302/2/4
f 302/1/4 299/1/4 303/1/4
f 303/1/4 299/1/4 304/1/4
f 303/2/4 304/2/4 305/2/4
f 305/2/4 304/2/4 306/2/4
f 308/1/4 309/1/4 311/1/4
f 309/2/4 310/2/4 311/2/4
f 311/2/4 310/2/4 312/2/4
f 308/1/4 311/1/4 313/1/4
f 308/1/4 313/1/4 315/1/4
f 313/1/4 314/1/4 315/1/4
f 315/1/4 314/1/4 316/1/4
f 308/1/4 315/1/4 317/1/4
f 315/2/4 316/2/4 317/2/4
f 317/2/4 316/2/4 318/2/4
f 317/1/4 318/1/4 319/1/4
f 319/1/4 318/1/4 320/1/4
f 307/2/4 308/2/4 321/2/4
f 308/1/4 317/1/4 322/1/4
f 321/2/4 308/2/4 322/2/4
f 317/1/4 319/1/4 322/1/4
f 322/1/4 319/1/4 323/1/4
f 326/2/5 325/2/5 324/2/5
f 327/2/5 325/2/5 326/2/5
f 332/1/5 329/1/5 328/1/5
f 333/1/5 329/1/5 332/1/5
f 334/2/5 331/2/5 330/2/5
f 335/2/5 331/2/5 334/2/5
f 336/2/5 333/2/5 332/2/5
f 337/2/5 333/2/5 336/2/5
f 340/2/5 339/2/5 338/2/5
f 341/2/5 339/2/5 340/2/5
f 344/2/5 343/2/5 342/2/5
f 345/2/5 343/2/5 344/2/5
f 346/1/5 345/1/5 344/1/5
f 347/1/5 346/1/5 344/1/5
f 348/1/5 346/1/5 347/1/5
f 351/2/6 352/2/6 353/2/6
f 353/2/6 352/2/6 354/2/6
f 349/2/6 350/2/6 355/2/6
f 355/2/6 350/2/6 356/2/6
f 349/2/6 355/2/6 357/2/6
f 357/2/6 355/2/6 358/2/6
f 359/1/6 360/1/6 364/1/6
f 364/1/6 360/1/6 365/1/6
f 365/1/6 360/1/6 366/1/6
f 362/1/6 363/1/6 367/1/6
f 361/1/6 362/1/6 367/1/6
f 361/1/6 367/1/6 368/1/6
f 368/1/6 367/1/6 369/1/6
f 369/1/6 367/1/6 370/1/6
f 368/2/6 369/2/6 371/2/6
f 369/1/6 370/1/6 372/1/6
f 371/2/6 369/2/6 372/2/6
f 372/1/6 370/1/6 373/1/6
f 365/2/6 366/2/6 375/2/6
f 375/2/6 366/2/6 376/2/6
f 373/1/6 374/1/6 377/1/6
f 372/1/6 373/1/6 377/1/6
f 377/1/6 374/1/6 378/1/6
f 379/2/6 380/2/6 383/2/6
f 383/2/6 380/2/6 384/2/6
f 381/1/6 382/1/6 385/1/6
f 385/1/6 382/1/6 386/1/6
f 387/1/6 388/1/6 390/1/6
f 388/2/6 389/2/6 391/2/6
f 390/1/6 388/1/6 391/1/6
f 391/2/6 389/2/6 392/2/6
f 392/2/6 389/2/6 393/2/6
f 392/1/6 393/1/6 394/1/6
f 394/1/6 393/1/6 395/1/6
f 394/2/6 395/2/6 396/2/6
f 396/2/6 395/2/6 397/2/6
f 398/1/6 399/1/6 401/1/6
f 401/1/6 399/1/6 402/1/6
f 399/2/6 400/2/6 403/2/6
f 402/1/6 399/1/6 403/1/6
f 403/2/6 400/2/6 404/2/6
f 405/2/6 406/2/6 408/2/6
f 406/1/6 407/1/6 409/1/6
f 408/2/6 406/2/6 409/2/6
f 409/1/6 407/1/6 410/1/6
f 410/1/6 407/1/6 411/1/6
f 412/2/6 413/2/6 415/2/6
f 413/1/6 414/1/6 416/1/6
f 415/2/6 413/2/6 416/2/6
f 415/1/6 416/1/6 417/1/6
f 416/1/6 414/1/6 418/1/6
f 417/1/6 416/1/6 418/1/6
f 417/2/6 418/2/6 421/2/6
f 421/2/6 418/2/6 422/2/6
f 422/2/6 418/2/6 423/2/6
f 419/1/6 420/1/6 424/1/6
f 420/2/6 421/2/6 425/2/6
f 424/1/6 420/1/6 425/1/6
f 421/2/6 422/2/6 425/2/6
f 422/1/6 423/1/6 426/1/6
f 425/2/6 422/2/6 426/2/6
f 426/1/6 423/1/6 427/1/6
f 428/1/6 429/1/6 430/1/6
f 430/1/6 429/1/6 431/1/6
f 430/2/6 431/2/6 432/2/6
f 432/2/6 431/2/6 433/2/6
f 432/1/6 433/1/6 434/1/6
f 434/1/6 433/1/6 435/1/6
f 436/2/6 437/2/6 440/2/6
f 439/2/6 440/2/6 443/2/6
f 437/1/6 438/1/6 444/1/6
f 443/2/6 440/2/6 444/2/6
f 440/2/6 437/2/6 444/2/6
f 444/1/6 438/1/6 445/1/6
f 441/2/6 442/2/6 446/2/6
f 446/2/6 442/2/6 447/2/6
f 439/2/6 443/2/6 449/2/6
f 444/1/6 445/1/6 450/1/6
f 443/1/6 444/1/6 450/1/6
f 449/2/6 443/2/6 450/2/6
f 445/2/6 446/2/6 451/2/6
f 450/1/6 445/1/6 451/1/6
f 451/2/6 446/2/6 452/2/6
f 448/1/6 449/1/6 453/1/6
f 449/1/6 450/1/6 453/1/6
f 450/1/6 451/1/6 453/1/6
f 453/1/6 451/1/6 454/1/6
f 454/1/6 451/1/6 455/1/6
f 455/1/6 451/1/6 456/1/6
f 456/1/6 451/1/6 457/1/6
f 453/2/6 454/2/6 458/2/6
f 458/2/6 454/2/6 459/2/6
f 458/1/6 459/1/6 460/1/6
f 458/1/6 460/1/6 464/1/6
f 460/2/6 461/2/6 465/2/6
f 464/1/6 460/1/6 465/1/6
f 461/1/6 462/1/6 466/1/6
f 465/2/6 461/2/6 466/2/6
f 462/2/6 463/2/6 467/2/6
f 466/1/6 462/1/6 467/1/6
f 467/2/6 463/2/6 468/2/6
f 469/1/6 470/1/6 471/1/6
f 471/1/6 470/1/6 472/1/6
f 469/1/6 471/1/6 473/1/6
f 473/1/6 471/1/6 474/1/6
f 475/2/6 476/2/6 479/2/6
f 476/1/6 477/1/6 480/1/6
f 479/2/6 476/2/6 480/2/6
f 479/1/6 480/1/6 481/1/6
f 477/2/6 478/2/6 482/2/6
f 481/1/6 480/1/6 482/1/6
f 480/1/6 477/1/6 482/1/6
f 482/2/6 478/2/6 483/2/6
